%YAML 1.1
%TAG !u! tag:unity3d.com,2011:
--- !u!1 &3704637977553524800
GameObject:
  m_ObjectHideFlags: 0
  m_CorrespondingSourceObject: {fileID: 0}
  m_PrefabInstance: {fileID: 0}
  m_PrefabAsset: {fileID: 0}
  serializedVersion: 6
  m_Component:
  - component: {fileID: 3704637977553524802}
  - component: {fileID: 3704637977553524803}
  m_Layer: 0
  m_Name: ECSManager
  m_TagString: Untagged
  m_Icon: {fileID: 0}
  m_NavMeshLayer: 0
  m_StaticEditorFlags: 0
  m_IsActive: 1
--- !u!4 &3704637977553524802
Transform:
  m_ObjectHideFlags: 0
  m_CorrespondingSourceObject: {fileID: 0}
  m_PrefabInstance: {fileID: 0}
  m_PrefabAsset: {fileID: 0}
  m_GameObject: {fileID: 3704637977553524800}
  m_LocalRotation: {x: 0, y: 0, z: 0, w: 1}
  m_LocalPosition: {x: -399.17578, y: -6727.2266, z: -43719.293}
  m_LocalScale: {x: 1, y: 1, z: 1}
  m_ConstrainProportionsScale: 0
  m_Children: []
  m_Father: {fileID: 0}
  m_RootOrder: 0
  m_LocalEulerAnglesHint: {x: 0, y: 0, z: 0}
--- !u!114 &3704637977553524803
MonoBehaviour:
  m_ObjectHideFlags: 0
  m_CorrespondingSourceObject: {fileID: 0}
  m_PrefabInstance: {fileID: 0}
  m_PrefabAsset: {fileID: 0}
  m_GameObject: {fileID: 3704637977553524800}
  m_Enabled: 1
  m_EditorHideFlags: 0
  m_Script: {fileID: 11500000, guid: 39d43be48ea3ad34b802132106d087e9, type: 3}
  m_Name: 
  m_EditorClassIdentifier: 
  _playerPrefab: {fileID: 2085474916366445249, guid: 1fd720f9fe5e92b4a940ce8716c86c34, type: 3}
  _playerBulletPrefab: {fileID: 5913832934816975768, guid: 8507d739338bf2d4c92d46e5fa27ca6c, type: 3}
  _asteroidPrefab: {fileID: 2600457731356885925, guid: d4af5f5e4762cb041a1093ab955e1927, type: 3}
  _enemyPrefab: {fileID: 5040352212603025622, guid: 20013804aaea03946a79a3fffa99d066, type: 3}
  _enemyBulletPrefab: {fileID: 5913832934816975768, guid: f6d557fba9c65794792fffa78dfe2090, type: 3}
  _explosionPrefab: {fileID: 3534333153798206257, guid: 09462f24988bf2d4e8bca47e07ab058f, type: 3}
  _powerUpTripleShootPrefab: {fileID: 3026770783445510014, guid: d7490ff3e1183bc458a5cb830d8f1061, type: 3}
  _powerUpShieldPrefab: {fileID: 3026770783445510014, guid: 2c98e88a04a18d2438dac243806c9447, type: 3}
  _shieldPrefab: {fileID: 3086651673941358095, guid: 75507f95f27a97a46ad0298742fe47dd, type: 3}
